{
  "getAllIdea": {
    "totalPage": 3,
    "currentPage": 1,
    "pageSize": 10,
    "total": 30,
    "data": [
      {
        "id": "1",
        "author": "nguyen van a",
        "title": "Top 10 doi hinh leo rank than toc mua 14.3B",
        "category": "Work",
        "totalComment": "500",
        "totalVote": "200",
        "totalView": "1000",
        "description": "<p>Lorem ipsum dolor sit amet consectetur adipisicing elit. Minima eligendi autem voluptates quod sint alias vitae numquam mollitia veniam fuga cumque, ullam recusandae! Ex voluptatibus ullam quasi debitis quo? Ratione.Lorem ipsum dolor sit amet consectetur adipisicing elit. Minima eligendi autem voluptates quod sint alias vitae numquam mollitia veniam fuga cumque, ullam recusandae! Ex voluptatibus ullam quasi debitis quo? Ratione.</p>",
        "isVoted": true,
        "createAt": "13/7/2024"
      },
      {
        "id": "2",
        "author": "nguyen van b",
        "title": "Top 10 doi hinh leo rank than toc mua 14.3B",
        "category": "Food",
        "totalComment": "800",
        "totalVote": "200",
        "totalView": "1000",
        "description": "<p>Lorem ipsum dolor sit amet consectetur adipisicing elit. Minima eligendi autem voluptates quod sint alias vitae numquam mollitia veniam fuga cumque, ullam recusandae! Ex voluptatibus ullam quasi debitis quo? Ratione.Lorem ipsum dolor sit amet consectetur adipisicing elit. Minima eligendi autem voluptates quod sint alias vitae numquam mollitia veniam fuga cumque, ullam recusandae! Ex voluptatibus ullam quasi debitis quo? Ratione.</p>",
        "isVoted": false,
        "createAt": "13/7/2024"
      }
    ]
  },

  "getAllCategory": {
    "total": 6,
    "data": [
    {
        "id": 1,
        "title": "Work",
        "icon": "work"
      },
      {
        "id": 1,
        "title": "Work",
        "icon": "work"
      },
      {
        "id": 1,
        "title": "Work",
        "icon": "work"
      }]  

},
"getDetailIdea": {
    "id": "1",
    "author": "nguyen van a",
    "title": "Top 10 doi hinh leo rank than toc mua 14.3B",
    "category": {
        "title": "work",
        "icon": "work"
    },
    "totalComment": "500",
    "totalVote": "200",
    "totalView": "1000",
    "description":
      "<p>Lorem ipsum dolor sit amet consectetur adipisicing elit. Minima eligendi autem voluptates quod sint alias vitae numquam mollitia veniam fuga cumque, ullam recusandae! Ex voluptatibus ullam quasi debitis quo? Ratione.Lorem ipsum dolor sit amet consectetur adipisicing elit. Minima eligendi autem voluptates quod sint alias vitae numquam mollitia veniam fuga cumque, ullam recusandae! Ex voluptatibus ullam quasi debitis quo? Ratione.</p>",
    "isVoted": true,
    "createAt": "13/7/2024",
    "comments": [
        {
            "id": "1",
            "author": "nguyen van a",
            "content": "Lorem ipsum dolor sit amet consectetur adipisicing elit. Minima eligendi autem volupt",
            "createAt": "13/7/2024",
            "reply": [{
                "id": "1",
                "author": "nguyen van b",
                "content": "Lorem ipsum dolor sit amet consectetur adipisicing elit. Minima eligendi autem volupt",
                "createAt": "13/7/2024",
                "replyFor": "nguyen van a"
            },
            {
                "id": "1",
                "author": "nguyen van c",
                "content": "Lorem ipsum dolor sit amet consectetur adipisicing elit. Minima eligendi autem volupt",
                "createAt": "13/7/2024",
                "replyFor": "nguyen van a"
            }]
        }
    ]

  }

}
